FMETER/simulation/qsim/FMETER.msim.vcd
$comment
	File created using the following command:
		vcd file FMETER.msim.vcd -direction
$end
$date
	Mon Jul 13 15:06:59 2020
$end
$version
	ModelSim Version 10.3d
$end
$timescale
	1ps
$end

$scope module LED7S_vlg_vec_tst $end
$var reg 4 ! DIN [3:0] $end
$var wire 1 " Y [6] $end
$var wire 1 # Y [5] $end
$var wire 1 $ Y [4] $end
$var wire 1 % Y [3] $end
$var wire 1 & Y [2] $end
$var wire 1 ' Y [1] $end
$var wire 1 ( Y [0] $end
$var wire 1 ) sampler $end

$scope module i1 $end
$var wire 1 * gnd $end
$var wire 1 + vcc $end
$var wire 1 , unknown $end
$var tri1 1 - devclrn $end
$var tri1 1 . devpor $end
$var tri1 1 / devoe $end
$var wire 1 0 Y[0]~output_o $end
$var wire 1 1 Y[1]~output_o $end
$var wire 1 2 Y[2]~output_o $end
$var wire 1 3 Y[3]~output_o $end
$var wire 1 4 Y[4]~output_o $end
$var wire 1 5 Y[5]~output_o $end
$var wire 1 6 Y[6]~output_o $end
$var wire 1 7 DIN[3]~input_o $end
$var wire 1 8 DIN[1]~input_o $end
$var wire 1 9 DIN[2]~input_o $end
$var wire 1 : DIN[0]~input_o $end
$var wire 1 ; Mux6~0_combout $end
$var wire 1 < Mux5~0_combout $end
$var wire 1 = Mux4~0_combout $end
$var wire 1 > Mux3~0_combout $end
$var wire 1 ? Mux2~0_combout $end
$var wire 1 @ Mux1~0_combout $end
$var wire 1 A Mux0~0_combout $end
$upscope $end
$upscope $end
$enddefinitions $end
#0
$dumpvars
b0 !
1(
1'
1&
1%
1$
1#
0"
x)
0*
1+
x,
1-
1.
1/
10
11
12
13
14
15
06
07
08
09
0:
0;
0<
0=
0>
0?
0@
0A
$end
#10000
b1 !
1:
0)
1@
1?
1>
1;
00
03
04
05
0(
0%
0$
0#
#20000
b11 !
b10 !
0:
18
1)
0?
0>
1=
0;
1A
16
10
02
13
14
1"
1(
0&
1%
1$
#30000
b11 !
1:
0)
1?
0=
12
04
1&
0$
#40000
b111 !
b101 !
b100 !
0:
08
19
1)
0@
1>
1;
00
03
15
0(
0%
1#
#50000
b101 !
1:
0)
0>
1<
0;
10
01
13
1(
0'
1%
#60000
b111 !
b110 !
0:
18
1)
0?
14
1$
#70000
b111 !
1:
0)
1@
1?
1>
0<
0A
06
11
03
04
05
0"
1'
0%
0$
0#
#80000
b1111 !
b1011 !
b1001 !
b1000 !
0:
08
09
17
1)
0@
0?
0>
1A
16
13
14
15
1"
1%
1$
1#
#90000
b1001 !
1:
0)
1?
04
0$
#100000
b1011 !
b1010 !
0:
18
1)
0?
1>
03
14
0%
1$
#110000
b1011 !
1:
0)
0>
1<
1;
00
01
13
0(
0'
1%
#120000
b1111 !
b1101 !
b1100 !
0:
08
19
1)
1=
0;
0A
06
10
02
0"
1(
0&
#130000
b1101 !
1:
0)
1@
0=
0<
1;
1A
16
00
11
12
05
1"
0(
1'
1&
0#
#140000
b1111 !
b1110 !
0:
18
1)
0@
1=
1<
0;
10
01
02
15
1(
0'
0&
1#
#150000
b1111 !
1:
0)
1>
03
0%
#160000
b111 !
b11 !
b1 !
b0 !
0:
08
09
07
1)
0>
0=
0<
0A
06
11
12
13
0"
1'
1&
1%
#170000
b1 !
1:
0)
1@
1?
1>
1;
00
03
04
05
0(
0%
0$
0#
#180000
b11 !
b10 !
0:
18
1)
0?
0>
1=
0;
1A
16
10
02
13
14
1"
1(
0&
1%
1$
#190000
b11 !
1:
0)
1?
0=
12
04
1&
0$
#200000
b111 !
b101 !
b100 !
0:
08
19
1)
0@
1>
1;
00
03
15
0(
0%
1#
#210000
b101 !
1:
0)
0>
1<
0;
10
01
13
1(
0'
1%
#220000
b111 !
b110 !
0:
18
1)
0?
14
1$
#230000
b111 !
1:
0)
1@
1?
1>
0<
0A
06
11
03
04
05
0"
1'
0%
0$
0#
#240000
b1111 !
b1011 !
b1001 !
b1000 !
0:
08
09
17
1)
0@
0?
0>
1A
16
13
14
15
1"
1%
1$
1#
#250000
b1001 !
1:
0)
1?
04
0$
#260000
b1011 !
b1010 !
0:
18
1)
0?
1>
03
14
0%
1$
#270000
b1011 !
1:
0)
0>
1<
1;
00
01
13
0(
0'
1%
#280000
b1111 !
b1101 !
b1100 !
0:
08
19
1)
1=
0;
0A
06
10
02
0"
1(
0&
#290000
b1101 !
1:
0)
1@
0=
0<
1;
1A
16
00
11
12
05
1"
0(
1'
1&
0#
#300000
b1111 !
b1110 !
0:
18
1)
0@
1=
1<
0;
10
01
02
15
1(
0'
0&
1#
#310000
b1111 !
1:
0)
1>
03
0%
#320000
b111 !
b11 !
b1 !
b0 !
0:
08
09
07
1)
0>
0=
0<
0A
06
11
12
13
0"
1'
1&
1%
#330000
b1 !
1:
0)
1@
1?
1>
1;
00
03
04
05
0(
0%
0$
0#
#340000
b11 !
b10 !
0:
18
1)
0?
0>
1=
0;
1A
16
10
02
13
14
1"
1(
0&
1%
1$
#350000
b11 !
1:
0)
1?
0=
12
04
1&
0$
#360000
b111 !
b101 !
b100 !
0:
08
19
1)
0@
1>
1;
00
03
15
0(
0%
1#
#370000
b101 !
1:
0)
0>
1<
0;
10
01
13
1(
0'
1%
#380000
b111 !
b110 !
0:
18
1)
0?
14
1$
#390000
b111 !
1:
0)
1@
1?
1>
0<
0A
06
11
03
04
05
0"
1'
0%
0$
0#
#400000
b1111 !
b1011 !
b1001 !
b1000 !
0:
08
09
17
1)
0@
0?
0>
1A
16
13
14
15
1"
1%
1$
1#
#410000
b1001 !
1:
0)
1?
04
0$
#420000
b1011 !
b1010 !
0:
18
1)
0?
1>
03
14
0%
1$
#430000
b1011 !
1:
0)
0>
1<
1;
00
01
13
0(
0'
1%
#440000
b1111 !
b1101 !
b1100 !
0:
08
19
1)
1=
0;
0A
06
10
02
0"
1(
0&
#450000
b1101 !
1:
0)
1@
0=
0<
1;
1A
16
00
11
12
05
1"
0(
1'
1&
0#
#460000
b1111 !
b1110 !
0:
18
1)
0@
1=
1<
0;
10
01
02
15
1(
0'
0&
1#
#470000
b1111 !
1:
0)
1>
03
0%
#480000
b111 !
b11 !
b1 !
b0 !
0:
08
09
07
1)
0>
0=
0<
0A
06
11
12
13
0"
1'
1&
1%
#490000
b1 !
1:
0)
1@
1?
1>
1;
00
03
04
05
0(
0%
0$
0#
#500000
b11 !
b10 !
0:
18
1)
0?
0>
1=
0;
1A
16
10
02
13
14
1"
1(
0&
1%
1$
#510000
b11 !
1:
0)
1?
0=
12
04
1&
0$
#520000
b111 !
b101 !
b100 !
0:
08
19
1)
0@
1>
1;
00
03
15
0(
0%
1#
#530000
b101 !
1:
0)
0>
1<
0;
10
01
13
1(
0'
1%
#540000
b111 !
b110 !
0:
18
1)
0?
14
1$
#550000
b111 !
1:
0)
1@
1?
1>
0<
0A
06
11
03
04
05
0"
1'
0%
0$
0#
#560000
b1111 !
b1011 !
b1001 !
b1000 !
0:
08
09
17
1)
0@
0?
0>
1A
16
13
14
15
1"
1%
1$
1#
#570000
b1001 !
1:
0)
1?
04
0$
#580000
b1011 !
b1010 !
0:
18
1)
0?
1>
03
14
0%
1$
#590000
b1011 !
1:
0)
0>
1<
1;
00
01
13
0(
0'
1%
#600000
b1111 !
b1101 !
b1100 !
0:
08
19
1)
1=
0;
0A
06
10
02
0"
1(
0&
#610000
b1101 !
1:
0)
1@
0=
0<
1;
1A
16
00
11
12
05
1"
0(
1'
1&
0#
#620000
b1111 !
b1110 !
0:
18
1)
0@
1=
1<
0;
10
01
02
15
1(
0'
0&
1#
#630000
b1111 !
1:
0)
1>
03
0%
#640000
b111 !
b11 !
b1 !
b0 !
0:
08
09
07
1)
0>
0=
0<
0A
06
11
12
13
0"
1'
1&
1%
#650000
b1 !
1:
0)
1@
1?
1>
1;
00
03
04
05
0(
0%
0$
0#
#660000
b11 !
b10 !
0:
18
1)
0?
0>
1=
0;
1A
16
10
02
13
14
1"
1(
0&
1%
1$
#670000
b11 !
1:
0)
1?
0=
12
04
1&
0$
#680000
b111 !
b101 !
b100 !
0:
08
19
1)
0@
1>
1;
00
03
15
0(
0%
1#
#690000
b101 !
1:
0)
0>
1<
0;
10
01
13
1(
0'
1%
#700000
b111 !
b110 !
0:
18
1)
0?
14
1$
#710000
b111 !
1:
0)
1@
1?
1>
0<
0A
06
11
03
04
05
0"
1'
0%
0$
0#
#720000
b1111 !
b1011 !
b1001 !
b1000 !
0:
08
09
17
1)
0@
0?
0>
1A
16
13
14
15
1"
1%
1$
1#
#730000
b1001 !
1:
0)
1?
04
0$
#740000
b1011 !
b1010 !
0:
18
1)
0?
1>
03
14
0%
1$
#750000
b1011 !
1:
0)
0>
1<
1;
00
01
13
0(
0'
1%
#760000
b1111 !
b1101 !
b1100 !
0:
08
19
1)
1=
0;
0A
06
10
02
0"
1(
0&
#770000
b1101 !
1:
0)
1@
0=
0<
1;
1A
16
00
11
12
05
1"
0(
1'
1&
0#
#780000
b1111 !
b1110 !
0:
18
1)
0@
1=
1<
0;
10
01
02
15
1(
0'
0&
1#
#790000
b1111 !
1:
0)
1>
03
0%
#800000
b111 !
b11 !
b1 !
b0 !
0:
08
09
07
1)
0>
0=
0<
0A
06
11
12
13
0"
1'
1&
1%
#810000
b1 !
1:
0)
1@
1?
1>
1;
00
03
04
05
0(
0%
0$
0#
#820000
b11 !
b10 !
0:
18
1)
0?
0>
1=
0;
1A
16
10
02
13
14
1"
1(
0&
1%
1$
#830000
b11 !
1:
0)
1?
0=
12
04
1&
0$
#840000
b111 !
b101 !
b100 !
0:
08
19
1)
0@
1>
1;
00
03
15
0(
0%
1#
#850000
b101 !
1:
0)
0>
1<
0;
10
01
13
1(
0'
1%
#860000
b111 !
b110 !
0:
18
1)
0?
14
1$
#870000
b111 !
1:
0)
1@
1?
1>
0<
0A
06
11
03
04
05
0"
1'
0%
0$
0#
#880000
b1111 !
b1011 !
b1001 !
b1000 !
0:
08
09
17
1)
0@
0?
0>
1A
16
13
14
15
1"
1%
1$
1#
#890000
b1001 !
1:
0)
1?
04
0$
#900000
b1011 !
b1010 !
0:
18
1)
0?
1>
03
14
0%
1$
#910000
b1011 !
1:
0)
0>
1<
1;
00
01
13
0(
0'
1%
#920000
b1111 !
b1101 !
b1100 !
0:
08
19
1)
1=
0;
0A
06
10
02
0"
1(
0&
#930000
b1101 !
1:
0)
1@
0=
0<
1;
1A
16
00
11
12
05
1"
0(
1'
1&
0#
#940000
b1111 !
b1110 !
0:
18
1)
0@
1=
1<
0;
10
01
02
15
1(
0'
0&
1#
#950000
b1111 !
1:
0)
1>
03
0%
#960000
b111 !
b11 !
b1 !
b0 !
0:
08
09
07
1)
0>
0=
0<
0A
06
11
12
13
0"
1'
1&
1%
#970000
b1 !
1:
0)
1@
1?
1>
1;
00
03
04
05
0(
0%
0$
0#
#980000
b11 !
b10 !
0:
18
1)
0?
0>
1=
0;
1A
16
10
02
13
14
1"
1(
0&
1%
1$
#990000
b11 !
1:
0)
1?
0=
12
04
1&
0$
